{
	"data": {
		"type": "booking",
		"attributes": {
			"status": "Requested"
		},
		"relationships": {
			"legs": {
				"data": [
					{
						"type": "leg",
						"id": "-1"
					}
				]
			}
		}
	},
	"included": [
		{
			"type": "segmentStop",
			"id": "-1",
			"attributes": {
				"type": "pick",
				"dwell": 0,
				"notes": "10TH AVE & 11TH AVE"
			},
			"relationships": {
				"address": {
					"data": {
						"type": "address",
						"freeformAddress": "",
						"alias": "",
						"premise": "507",
						"streetNumber": "555",
						"streetAddress": "W 52ND ST",
						"locality": "NEW YORK",
						"subLocality": "NEW YORK",
						"subRegion": "",
						"region": "NY",
						"postalCode": "10019",
						"country": "United States",
						"notes": "10TH AVE & 11TH AVE",
						"zName": null,
						"zoneName": "1"
					}
				},
				"place": {
					"data": {
						"type": "place",
						"placeCategoryTypeName": "passenger",
						"geocodingMethod": "something"
					}
				},
				"location": {
					"data": {
						"type": "location",
						"lat": "40.76673",
						"lng": "-73.99278",
						"geoNode": 29079
					}
				}
			}
		},
		{
			"type": "segmentStop",
			"id": "-2",
			"attributes": {
				"type": "drop",
				"dwell": 0,
				"notes": ""
			},
			"relationships": {
				"address": {
					"data": {
						"type": "address",
						"freeformAddress": "",
						"alias": "",
						"premise": "",
						"streetNumber": "32",
						"streetAddress": "West 92nd Street",
						"locality": "New York",
						"subLocality": null,
						"subRegion": "New York",
						"region": "New York",
						"postalCode": "10025",
						"country": "US",
						"notes": "",
						"zName": "MANHATTAN UPTOWN",
						"zoneName": "MANHATTAN UPTOWN"
					}
				},
				"place": {
					"data": {
						"type": "place",
						"placeCategoryTypeName": "passenger",
						"geocodingMethod": "something"
					}
				},
				"location": {
					"data": {
						"type": "location",
						"lat": "40.7896",
						"lng": "-73.9682",
						"geoNode": 39906
					}
				}
			}
		},
		{
			"type": "segment",
			"id": "-11",
			"attributes": {
				"promiseTime": "",
				"anchor": "pick",
				"fare": 2.75,
				"travelMode": "paratransit",
				"noSharing": 0,
				"legOrdinal": 1,
				"segmentType": 1
			},
			"relationships": {
				"pick": {
					"data": {
						"type": "segmentStop",
						"id": "-1"
					}
				},
				"drop": {
					"data": {
						"type": "segmentStop",
						"id": "-2"
					}
				},
				"leg": {
					"data": {
						"type": "leg",
						"id": "-1"
					}
				},
				"fareTypeName": {
					"data": {
						"type": "fareTypeName",
						"id": "cash"
					}
				}
			}
		},
		{
			"type": "legTravelNeed",
			"id": "-1",
			"attributes": {
				"count": 1
			},
			"relationships": {
				"travelNeedTypeName": {
					"data": {
						"type": "travelNeedTypeName",
						"id": "ambulatory"
					}
				},
				"leg": {
					"data": {
						"type": "leg",
						"id": "-1"
					}
				},
				"passengerTypeName": {
					"data": {
						"type": "passengerTypeName",
						"id": "client"
					}
				}
			}
		},
		{
			"type": "leg",
			"id": "-1",
			"attributes": {
				"requestTime": "",
				"anchor": "pick",
				"purpose": "trip",
				"riderPhoneNumber": {
					"areaCode": "646",
					"phoneNumber": "5902499",
					"extension": "",
					"type": "client",
					"description": "# AT TOP OF CLIENT SCREEN",
					"mobileCarrier": "yes",
					"useForSMSNotifications": false,
					"useForVoiceNotifications": true
				}
			},
			"relationships": {
				"segments": {
					"data": [
						{
							"type": "segment",
							"id": "-11"
						}
					]
				},
				"legTravelNeeds": {
					"data": [
						{
							"type": "legTravelNeed",
							"id": "-1"
						}
					]
				},
				"serviceWindowName": {
					"data": {
						"type": "serviceWindowName",
						"id": "GENERAL"
					}
				},
				"rider": {
					"data": {
						"type": "rider",
						"riderId": "830666",
						"firstName": "EVANGELINE",
						"middleName": "A",
						"lastName": "OFORI ATTA",
						"dateOfBirth": "1944-04-21",
						"notes": ""
					}
				},
				"riderPhoneNumber": {
					"data": {
						"areaCode": "646",
						"phoneNumber": "5902499",
						"extension": "",
						"type": "client",
						"description": "# AT TOP OF CLIENT SCREEN",
						"mobileCarrier": "yes",
						"useForSMSNotifications": false,
						"useForVoiceNotifications": true
					}
				}
			}
		}
	]
}