{
	"id": 75,
	"lastName": "FERNANDEZ",
	"firstName": "MERCEDES",
	"middleName": "",
	"dateOfBirth": "1934-05-12T00:00:00",
	"gender": "FEMALE",
	"loadTime": 9,
	"unloadTime": 5,
	"walkingSpeed": 2.5,
	"serviceNeeds": [
		"DOOR TO DOOR"
	],
	"email": "",
	"passcode": "1934",
	"notes": "",
	"notificationPhoneNumbers": [
		{
			"type": "MAIN",
			"areaCode": "347",
			"phoneNumber": "4471288",
			"extension": "",
			"description": "# AT TOP OF CLIENT SCREEN",
			"useForSmsNotifications": false,
			"useForVoiceNotifications": true
		},
		{
			"type": "CELL",
			"areaCode": "347",
			"phoneNumber": "4471288",
			"extension": "",
			"description": "",
			"useForSmsNotifications": false,
			"useForVoiceNotifications": true
		},
		{
			"type": "EMERGENCY",
			"areaCode": "718",
			"phoneNumber": "2712173",
			"extension": "",
			"description": "EMERGENCY CONTACT #",
			"useForSmsNotifications": false,
			"useForVoiceNotifications": false
		}
	],
	"places": [
		{
			"type": "Home",
			"address": {
				"alias": "PLEASE VERIFY PASSCODE",
				"premise": "25",
				"streetNumber": "7",
				"streetAddress": "W 92ND ST",
				"locality": "NEW YORK",
				"subregion": "New York",
				"region": "NY",
				"postalCode": "10025",
				"notes": "COLUMBUS AV & CENTRAL PARK W",
				"lat": 40.78919,
				"lng": -73.96677
			}
		},
		{
			"type": "Primary",
			"address": {
				"alias": "PLEASE VERIFY PASSCODE",
				"premise": "25",
				"streetNumber": "7",
				"streetAddress": "W 92ND ST",
				"locality": "NEW YORK",
				"subregion": "New York",
				"region": "NY",
				"postalCode": "10025",
				"notes": "COLUMBUS AV & CENTRAL PARK W",
				"lat": 40.78919,
				"lng": -73.96677
			}
		}
	],
	"travelNeeds": [
		{
			"type": "LIFT REQUIRED",
			"cnt": 0
		},
		{
			"type": "OVERSIZED WHEELCHAIR",
			"cnt": 2
		},
		{
			"type": "PCA",
			"cnt": 1
		}
	],
	"status": "ACTIVE",
	"categories": [
		{
			"type": "CONTINUAL FULL",
			"begin": "2017-12-17T00:00:00",
			"end": "2022-12-31T00:00:00"
		}
	]
}