{
    "baseUrl": "https://iq.ui.aiqgrey.ddsdeploytest.com/",
    "chromeWebSecurity": false,
    "env": {
        "userId" : "e75d2dc0-bd1d-4b94-b1b7-eebea0d4f0b0",
        "username":"iq-admin@ddswireless.com",
        "password":"AdM5I0N09ToS$IlJ",

        "apiUrl" :"https://iq.aiqgrey.ddsdeploytest.com/"
    },

    "watchForFileChanges": false
}