{
	"moreResults": false,
	"riders": [
		{
			"id": 830666,
			"lastName": "OFORI ATTA",
			"firstName": "EVANGELINE",
			"middleName": "A",
			"dateOfBirth": "1944-04-21T00:00:00",
			"notificationPhoneNumbers": [
				{
					"type": "MAIN",
					"areaCode": "646",
					"phoneNumber": "5902499",
					"extension": "",
					"description": "# AT TOP OF CLIENT SCREEN",
					"useForSmsNotifications": false,
					"useForVoiceNotifications": true
				},
                {
                    "type": "CELL",
                    "areaCode": "929",
                    "phoneNumber": "2862036",
                    "extension": "",
                    "description": "",
                    "useForSmsNotifications": false,
                    "useForVoiceNotifications": true
                }
			],
			"status": "ACTIVE",
			"categories": [
				{
					"type": "FULL",
					"begin": "2019-05-23T00:00:00",
					"end": "2024-05-31T00:00:00"
				}
			]
		}
	]
}